<?xml version="1.0" encoding="UTF-8"?><svg xmlns="http://www.w3.org/2000/svg" xmlns:xlink="http://www.w3.org/1999/xlink"
    width="425.25" zoomAndPan="magnify" viewBox="0 0 425.25 226.499992" height="226.499992"
    preserveAspectRatio="xMidYMid meet" version="1.0">
    <defs>
        <g>
            <g id="glyph-0-0">
                <path
                    d="M -0.0390625 0 L 10.375 0 L 11.414062 -4.390625 L 18.476562 -4.390625 L 19.394531 0 L 30.011719 0 L 21.390625 -28.734375 L 8.621094 -28.734375 Z M 12.652344 -11.175781 L 14.964844 -20.792969 L 15.046875 -20.792969 L 17.242188 -11.175781 Z M 12.652344 -11.175781 " />
            </g>
            <g id="glyph-0-1">
                <path
                    d="M 7.703125 0.398438 C 10.257812 0.398438 12.453125 -0.996094 13.449219 -3.832031 L 13.488281 -3.832031 L 14.6875 0 L 22.46875 0 L 22.46875 -29.933594 L 13.289062 -29.933594 L 13.289062 -17.042969 L 13.25 -17.042969 C 12.210938 -19.753906 10.175781 -21.152344 7.703125 -21.152344 C 3.3125 -21.152344 0.519531 -17.121094 0.519531 -10.375 C 0.519531 -3.632812 3.3125 0.398438 7.703125 0.398438 Z M 11.695312 -7.183594 C 10.457031 -7.183594 9.699219 -8.339844 9.699219 -10.375 C 9.699219 -12.410156 10.457031 -13.570312 11.695312 -13.570312 C 12.929688 -13.570312 13.6875 -12.410156 13.6875 -10.375 C 13.6875 -8.339844 12.929688 -7.183594 11.695312 -7.183594 Z M 11.695312 -7.183594 " />
            </g>
            <g id="glyph-0-2">
                <path
                    d="M 5.585938 -22.347656 C 8.582031 -22.347656 10.574219 -24.265625 10.574219 -27.136719 C 10.574219 -30.011719 8.582031 -31.925781 5.585938 -31.925781 C 2.59375 -31.925781 0.597656 -30.011719 0.597656 -27.136719 C 0.597656 -24.265625 2.59375 -22.347656 5.585938 -22.347656 Z M 0.996094 0 L 10.175781 0 L 10.175781 -20.753906 L 0.996094 -20.753906 Z M 0.996094 0 " />
            </g>
            <g id="glyph-0-3">
                <path
                    d="M 12.292969 0.597656 C 15.007812 0.597656 17.480469 -0.078125 19.714844 -1.4375 L 18.320312 -7.820312 C 17.042969 -7.023438 16.164062 -6.703125 14.925781 -6.703125 C 13.570312 -6.703125 12.492188 -7.621094 12.492188 -9.65625 L 12.492188 -13.96875 L 18.878906 -13.96875 L 18.878906 -20.753906 L 12.492188 -20.753906 L 12.492188 -27.738281 L 3.3125 -25.742188 L 3.3125 -20.753906 L 0.320312 -20.753906 L 0.320312 -13.96875 L 3.3125 -13.96875 L 3.3125 -7.863281 C 3.3125 -2.632812 6.34375 0.597656 12.292969 0.597656 Z M 12.292969 0.597656 " />
            </g>
            <g id="glyph-0-4">
                <path
                    d="M 9.417969 9.097656 C 17.242188 9.097656 22.230469 4.828125 22.230469 -1.996094 L 22.230469 -20.753906 L 13.050781 -20.753906 L 13.050781 -9.378906 C 13.050781 -8.023438 12.492188 -7.183594 11.535156 -7.183594 C 10.734375 -7.183594 10.257812 -7.941406 10.257812 -9.21875 L 10.257812 -20.753906 L 1.078125 -20.753906 L 1.078125 -7.183594 C 1.078125 -2.675781 3.351562 0 7.222656 0 C 9.816406 0 12.011719 -1.714844 13.171875 -4.589844 L 13.210938 -4.589844 L 13.210938 -2.792969 C 13.210938 -0.0390625 11.292969 1.714844 8.222656 1.714844 C 6.1875 1.714844 3.710938 1.078125 1.796875 0 L -0.4375 6.824219 C 2.234375 8.300781 6.027344 9.097656 9.417969 9.097656 Z M 9.417969 9.097656 " />
            </g>
            <g id="glyph-0-5">
                <path
                    d="M 6.464844 0.359375 C 9.417969 0.359375 11.773438 -1.199219 12.929688 -3.59375 L 12.96875 -3.59375 L 13.089844 -3.191406 C 13.609375 -1.117188 16.042969 0.4375 19.078125 0.4375 C 21.191406 0.4375 23.585938 -0.0390625 25.261719 -1.238281 L 24.144531 -5.785156 C 23.746094 -5.546875 23.1875 -5.347656 22.75 -5.347656 C 22.109375 -5.347656 21.75 -5.828125 21.75 -6.703125 L 21.75 -12.371094 C 21.75 -18 17.917969 -21.472656 11.414062 -21.472656 C 5.1875 -21.472656 1.316406 -18.359375 1.199219 -13.289062 L 10.058594 -12.730469 C 10.21875 -14.445312 10.695312 -15.484375 11.613281 -15.484375 C 12.253906 -15.484375 12.730469 -14.964844 12.730469 -13.886719 C 12.730469 -12.851562 12.132812 -12.453125 11.335938 -12.371094 L 8.859375 -12.132812 C 3.75 -11.652344 0.28125 -9.457031 0.28125 -5.347656 C 0.28125 -1.796875 2.753906 0.359375 6.464844 0.359375 Z M 10.855469 -5.425781 C 10.058594 -5.425781 9.5 -5.945312 9.5 -6.703125 C 9.5 -7.582031 10.175781 -8.222656 11.613281 -8.339844 L 12.691406 -8.421875 L 12.691406 -7.820312 C 12.691406 -6.34375 11.894531 -5.425781 10.855469 -5.425781 Z M 10.855469 -5.425781 " />
            </g>
            <g id="glyph-0-6" />
            <g id="glyph-0-7">
                <path
                    d="M 8.980469 0 L 19.355469 0 L 19.355469 -9.578125 L 28.054688 -28.734375 L 17.160156 -28.734375 L 14.246094 -18.160156 L 14.167969 -18.160156 L 10.734375 -28.734375 L 0 -28.734375 L 8.980469 -9.578125 Z M 8.980469 0 " />
            </g>
            <g id="glyph-0-8">
                <path
                    d="M 6.585938 0 L 17.960938 0 L 24.742188 -20.753906 L 15.164062 -20.753906 L 12.410156 -7.421875 L 12.332031 -7.421875 L 9.578125 -20.753906 L 0 -20.753906 Z M 6.585938 0 " />
            </g>
        </g>
        <clipPath id="clip-0">
            <path d="M 0.09375 0 L 424.40625 0 L 424.40625 226 L 0.09375 226 Z M 0.09375 0 " clip-rule="nonzero" />
        </clipPath>
        <clipPath id="clip-1">
            <path d="M 180.304688 17 L 244 17 L 244 80 L 180.304688 80 Z M 180.304688 17 " clip-rule="nonzero" />
        </clipPath>
        <clipPath id="clip-2">
            <path
                d="M 244.144531 48.488281 C 244.144531 66.117188 229.851562 80.40625 212.222656 80.40625 C 194.59375 80.40625 180.304688 66.117188 180.304688 48.488281 C 180.304688 30.859375 194.59375 16.566406 212.222656 16.566406 C 229.855469 16.566406 244.144531 30.859375 244.144531 48.488281 Z M 244.144531 48.488281 "
                clip-rule="nonzero" />
        </clipPath>
        <clipPath id="clip-3">
            <path
                d="M 133.445312 167 L 170.296875 167 L 170.296875 203.644531 L 133.445312 203.644531 Z M 133.445312 167 "
                clip-rule="nonzero" />
        </clipPath>
        <clipPath id="clip-4">
            <path
                d="M 133.445312 201.351562 L 133.445312 169.085938 C 133.445312 167.816406 134.46875 166.792969 135.734375 166.792969 L 168.011719 166.792969 C 169.273438 166.792969 170.296875 167.816406 170.296875 169.085938 L 170.296875 201.359375 C 170.296875 202.628906 169.273438 203.652344 168.003906 203.652344 L 135.734375 203.652344 C 134.46875 203.644531 133.445312 202.621094 133.445312 201.351562 Z M 133.445312 201.351562 "
                clip-rule="nonzero" />
        </clipPath>
        <clipPath id="clip-5">
            <path
                d="M 193.796875 167 L 230.652344 167 L 230.652344 203.644531 L 193.796875 203.644531 Z M 193.796875 167 "
                clip-rule="nonzero" />
        </clipPath>
        <clipPath id="clip-6">
            <path
                d="M 193.796875 201.351562 L 193.796875 169.085938 C 193.796875 167.816406 194.824219 166.792969 196.089844 166.792969 L 228.367188 166.792969 C 229.625 166.792969 230.652344 167.816406 230.652344 169.085938 L 230.652344 201.359375 C 230.652344 202.628906 229.625 203.652344 228.359375 203.652344 L 196.089844 203.652344 C 194.824219 203.644531 193.796875 202.621094 193.796875 201.351562 Z M 193.796875 201.351562 "
                clip-rule="nonzero" />
        </clipPath>
        <clipPath id="clip-7">
            <path
                d="M 254.152344 167 L 291.003906 167 L 291.003906 203.644531 L 254.152344 203.644531 Z M 254.152344 167 "
                clip-rule="nonzero" />
        </clipPath>
        <clipPath id="clip-8">
            <path
                d="M 254.152344 201.351562 L 254.152344 169.085938 C 254.152344 167.816406 255.175781 166.792969 256.445312 166.792969 L 288.71875 166.792969 C 289.980469 166.792969 291.003906 167.816406 291.003906 169.085938 L 291.003906 201.359375 C 291.003906 202.628906 289.980469 203.652344 288.710938 203.652344 L 256.445312 203.652344 C 255.175781 203.644531 254.152344 202.621094 254.152344 201.351562 Z M 254.152344 201.351562 "
                clip-rule="nonzero" />
        </clipPath>
    </defs>
    <g clip-path="url(#clip-0)">
        <path fill="rgb(100%, 100%, 100%)"
            d="M 0.09375 0 L 425.15625 0 L 425.15625 234.234375 L 0.09375 234.234375 Z M 0.09375 0 " fill-opacity="1"
            fill-rule="nonzero" />
        <path fill="rgb(100%, 100%, 100%)" d="M 0.09375 0 L 424.40625 0 L 424.40625 226 L 0.09375 226 Z M 0.09375 0 "
            fill-opacity="1" fill-rule="nonzero" />
        <path fill="rgb(0%, 0%, 0%)" d="M 0.09375 0 L 424.40625 0 L 424.40625 226 L 0.09375 226 Z M 0.09375 0 "
            fill-opacity="1" fill-rule="nonzero" />
    </g>
    <g clip-path="url(#clip-1)">
        <g clip-path="url(#clip-2)">
            <g transform="matrix(0.206607, 0, 0, 0.206607, 180.303594, 16.566223)">
                <image x="0" y="0" width="309" xmlns:xlink="http://www.w3.org/1999/xlink" xlink:href="logos/aditya.png"
                    xlink:type="simple" xlink:actuate="onLoad" height="309" id="source-5"
                    preserveAspectRatio="xMidYMid meet" xlink:show="embed" />
            </g>
        </g>
    </g>
    <g fill="rgb(100%, 100%, 100%)" fill-opacity="1">
        <use x="79.152836" y="133.328647" xmlns:xlink="http://www.w3.org/1999/xlink" xlink:href="#glyph-0-0"
            xlink:type="simple" xlink:actuate="onLoad" xlink:show="embed" />
    </g>
    <g fill="rgb(100%, 100%, 100%)" fill-opacity="1">
        <use x="109.163604" y="133.328647" xmlns:xlink="http://www.w3.org/1999/xlink" xlink:href="#glyph-0-1"
            xlink:type="simple" xlink:actuate="onLoad" xlink:show="embed" />
    </g>
    <g fill="rgb(100%, 100%, 100%)" fill-opacity="1">
        <use x="132.629467" y="133.328647" xmlns:xlink="http://www.w3.org/1999/xlink" xlink:href="#glyph-0-2"
            xlink:type="simple" xlink:actuate="onLoad" xlink:show="embed" />
    </g>
    <g fill="rgb(100%, 100%, 100%)" fill-opacity="1">
        <use x="143.803689" y="133.328647" xmlns:xlink="http://www.w3.org/1999/xlink" xlink:href="#glyph-0-3"
            xlink:type="simple" xlink:actuate="onLoad" xlink:show="embed" />
    </g>
    <g fill="rgb(100%, 100%, 100%)" fill-opacity="1">
        <use x="164.037004" y="133.328647" xmlns:xlink="http://www.w3.org/1999/xlink" xlink:href="#glyph-0-4"
            xlink:type="simple" xlink:actuate="onLoad" xlink:show="embed" />
    </g>
    <g fill="rgb(100%, 100%, 100%)" fill-opacity="1">
        <use x="187.263413" y="133.328647" xmlns:xlink="http://www.w3.org/1999/xlink" xlink:href="#glyph-0-5"
            xlink:type="simple" xlink:actuate="onLoad" xlink:show="embed" />
    </g>
    <g fill="rgb(100%, 100%, 100%)" fill-opacity="1">
        <use x="212.525135" y="133.328647" xmlns:xlink="http://www.w3.org/1999/xlink" xlink:href="#glyph-0-6"
            xlink:type="simple" xlink:actuate="onLoad" xlink:show="embed" />
    </g>
    <g fill="rgb(100%, 100%, 100%)" fill-opacity="1">
        <use x="218.511325" y="133.328647" xmlns:xlink="http://www.w3.org/1999/xlink" xlink:href="#glyph-0-7"
            xlink:type="simple" xlink:actuate="onLoad" xlink:show="embed" />
    </g>
    <g fill="rgb(100%, 100%, 100%)" fill-opacity="1">
        <use x="246.566597" y="133.328647" xmlns:xlink="http://www.w3.org/1999/xlink" xlink:href="#glyph-0-5"
            xlink:type="simple" xlink:actuate="onLoad" xlink:show="embed" />
    </g>
    <g fill="rgb(100%, 100%, 100%)" fill-opacity="1">
        <use x="271.82832" y="133.328647" xmlns:xlink="http://www.w3.org/1999/xlink" xlink:href="#glyph-0-1"
            xlink:type="simple" xlink:actuate="onLoad" xlink:show="embed" />
    </g>
    <g fill="rgb(100%, 100%, 100%)" fill-opacity="1">
        <use x="295.294172" y="133.328647" xmlns:xlink="http://www.w3.org/1999/xlink" xlink:href="#glyph-0-5"
            xlink:type="simple" xlink:actuate="onLoad" xlink:show="embed" />
    </g>
    <g fill="rgb(100%, 100%, 100%)" fill-opacity="1">
        <use x="320.555894" y="133.328647" xmlns:xlink="http://www.w3.org/1999/xlink" xlink:href="#glyph-0-8"
            xlink:type="simple" xlink:actuate="onLoad" xlink:show="embed" />
    </g>
    <a href="https://instagram.com/codewithaadi">
        <g clip-path="url(#clip-3)">
            <g clip-path="url(#clip-4)">
                <g transform="matrix(0.103715, 0, 0, 0.103517, 127.2971, 166.792697)">
                    <image x="0" y="0" width="474" xmlns:xlink="http://www.w3.org/1999/xlink"
                        xlink:href="logos/instagram.png" xlink:type="simple" xlink:actuate="onLoad" height="356"
                        id="source-20" preserveAspectRatio="xMidYMid meet" xlink:show="embed" />
                </g>
            </g>
        </g>
    </a>
    <a href="https://github.com/dedomil">
        <g clip-path="url(#clip-5)">
            <g clip-path="url(#clip-6)">
                <g transform="matrix(0.103715, 0, 0, 0.103517, 187.651245, 166.792697)">
                    <image x="0" y="0" width="474" xmlns:xlink="http://www.w3.org/1999/xlink"
                        xlink:href="logos/github.png" xlink:type="simple" xlink:actuate="onLoad" height="356"
                        id="source-20" preserveAspectRatio="xMidYMid meet" xlink:show="embed" />
                </g>
            </g>
        </g>
    </a>
    <a href="mailto:ishqaddy@gmail.com">
        <g clip-path="url(#clip-7)">
            <g clip-path="url(#clip-8)">
                <g transform="matrix(0.103715, 0, 0, 0.103517, 248.005362, 166.792697)">
                    <image x="0" y="0" width="474" xmlns:xlink="http://www.w3.org/1999/xlink"
                        xlink:href="logos/mail.png" xlink:type="simple" xlink:actuate="onLoad" height="356"
                        id="source-20" preserveAspectRatio="xMidYMid meet" xlink:show="embed" />
                </g>
            </g>
        </g>
    </a>
</svg>